{
  "products": [
    {
      "id": 1,
      "name": "Doom Ethernal",
      "description": "Lorem ipsum dolor sit amet, consectetur adipiscing elit. Nunc pharetra velit erat. Praesent consequat nec ipsum non volutpat. Morbi vel ex auctor, porttitor felis in, accumsan urna. Duis hendrerit est ut ligula consequat vestibulum. Pellentesque ultrices semper nunc eu mattis. Sed vehicula leo sit amet mi tincidunt, sit amet interdum nulla sollicitudin",
      "imageUrl": "https://i.pinimg.com/originals/15/63/14/156314273707e696638ff369a2a92e51.jpg",
      "price": 299
    },
    {
      "id": 2,
      "name": "Doom Ethernal",
      "description": "Lorem ipsum dolor sit amet, consectetur adipiscing elit. Nunc pharetra velit erat. Praesent consequat nec ipsum non volutpat. Morbi vel ex auctor, porttitor felis in, accumsan urna. Duis hendrerit est ut ligula consequat vestibulum. Pellentesque ultrices semper nunc eu mattis. Sed vehicula leo sit amet mi tincidunt, sit amet interdum nulla sollicitudin",
      "imageUrl": "https://images-na.ssl-images-amazon.com/images/I/610YnX2Cu9L._CR204,0,1224,1224_UX256.jpg",
      "price": 199
    },
    {
      "id": 3,
      "name": "Doom Ethernal",
      "description": "Lorem ipsum dolor sit amet, consectetur adipiscing elit. Nunc pharetra velit erat. Praesent consequat nec ipsum non volutpat. Morbi vel ex auctor, porttitor felis in, accumsan urna. Duis hendrerit est ut ligula consequat vestibulum. Pellentesque ultrices semper nunc eu mattis. Sed vehicula leo sit amet mi tincidunt, sit amet interdum nulla sollicitudin",
      "imageUrl": "https://b3h2.scene7.com/is/image/BedBathandBeyond/139044962738514p?$imagePLP$&wid=256&hei=256",
      "price": 399
    },
    {
      "id": 4,
      "name": "Doom Ethernal",
      "description": "Lorem ipsum dolor sit amet, consectetur adipiscing elit. Nunc pharetra velit erat. Praesent consequat nec ipsum non volutpat. Morbi vel ex auctor, porttitor felis in, accumsan urna. Duis hendrerit est ut ligula consequat vestibulum. Pellentesque ultrices semper nunc eu mattis. Sed vehicula leo sit amet mi tincidunt, sit amet interdum nulla sollicitudin",
      "imageUrl": "https://b3h2.scene7.com/is/image/BedBathandBeyond/308111668950125p?$imagePLP$&wid=256&hei=256",
      "price": 499
    },
    {
      "id": 5,
      "name": "Doom Ethernal",
      "description": "Lorem ipsum dolor sit amet, consectetur adipiscing elit. Nunc pharetra velit erat. Praesent consequat nec ipsum non volutpat. Morbi vel ex auctor, porttitor felis in, accumsan urna. Duis hendrerit est ut ligula consequat vestibulum. Pellentesque ultrices semper nunc eu mattis. Sed vehicula leo sit amet mi tincidunt, sit amet interdum nulla sollicitudin",
      "imageUrl": "https://www.pascogifts.com/files/cache/square/files/8182-002-foto-1-pluche-knuffelbeer-met-hoodie-low-resolution-748248-5bc4915253078.jpg",
      "price": 99
    }
  ],
  "wishlist": [
    {
      "id": 1
    },
    {
      "id": 4
    },
    {
      "id": 3
    }
  ],
  "cart": [
    {
      "product": {
        "id": 2,
        "name": "Doom Ethernal",
        "description": "Lorem ipsum dolor sit amet, consectetur adipiscing elit. Nunc pharetra velit erat. Praesent consequat nec ipsum non volutpat. Morbi vel ex auctor, porttitor felis in, accumsan urna. Duis hendrerit est ut ligula consequat vestibulum. Pellentesque ultrices semper nunc eu mattis. Sed vehicula leo sit amet mi tincidunt, sit amet interdum nulla sollicitudin",
        "imageUrl": "https://images-na.ssl-images-amazon.com/images/I/610YnX2Cu9L._CR204,0,1224,1224_UX256.jpg",
        "price": 199
      },
      "id": 1
    },
    {
      "product": {
        "id": 3,
        "name": "Doom Ethernal",
        "description": "Lorem ipsum dolor sit amet, consectetur adipiscing elit. Nunc pharetra velit erat. Praesent consequat nec ipsum non volutpat. Morbi vel ex auctor, porttitor felis in, accumsan urna. Duis hendrerit est ut ligula consequat vestibulum. Pellentesque ultrices semper nunc eu mattis. Sed vehicula leo sit amet mi tincidunt, sit amet interdum nulla sollicitudin",
        "imageUrl": "https://b3h2.scene7.com/is/image/BedBathandBeyond/139044962738514p?$imagePLP$&wid=256&hei=256",
        "price": 399
      },
      "id": 2
    },
    {
      "product": {
        "id": 1,
        "name": "Doom Ethernal",
        "description": "Lorem ipsum dolor sit amet, consectetur adipiscing elit. Nunc pharetra velit erat. Praesent consequat nec ipsum non volutpat. Morbi vel ex auctor, porttitor felis in, accumsan urna. Duis hendrerit est ut ligula consequat vestibulum. Pellentesque ultrices semper nunc eu mattis. Sed vehicula leo sit amet mi tincidunt, sit amet interdum nulla sollicitudin",
        "imageUrl": "https://i.pinimg.com/originals/15/63/14/156314273707e696638ff369a2a92e51.jpg",
        "price": 299
      },
      "id": 3
    },
    {
      "product": {
        "id": 2,
        "name": "Doom Ethernal",
        "description": "Lorem ipsum dolor sit amet, consectetur adipiscing elit. Nunc pharetra velit erat. Praesent consequat nec ipsum non volutpat. Morbi vel ex auctor, porttitor felis in, accumsan urna. Duis hendrerit est ut ligula consequat vestibulum. Pellentesque ultrices semper nunc eu mattis. Sed vehicula leo sit amet mi tincidunt, sit amet interdum nulla sollicitudin",
        "imageUrl": "https://images-na.ssl-images-amazon.com/images/I/610YnX2Cu9L._CR204,0,1224,1224_UX256.jpg",
        "price": 199
      },
      "id": 4
    },
    {
      "product": {
        "id": 3,
        "name": "The Train",
        "description": "Lorem ipsum dolor sit amet, consectetur adipiscing elit. Nunc pharetra velit erat. Praesent consequat nec ipsum non volutpat. Morbi vel ex auctor, porttitor felis in, accumsan urna. Duis hendrerit est ut ligula consequat vestibulum. Pellentesque ultrices semper nunc eu mattis. Sed vehicula leo sit amet mi tincidunt, sit amet interdum nulla sollicitudin",
        "imageUrl": "https://b3h2.scene7.com/is/image/BedBathandBeyond/139044962738514p?$imagePLP$&wid=256&hei=256",
        "price": 399
      },
      "id": 5
    },
    {
      "product": {
        "id": 2,
        "name": "Rubik's Cube 2",
        "description": "Praesent dictum laoreet nibh nec volutpat. Etiam vel arcu lectus. Maecenas tellus eros, euismod a urna eget, interdum posuere dolor. Vivamus eleifend convallis nisi vel blandit. Praesent sed tellus vitae dui viverra faucibus porttitor ut dui. Praesent id metus ut augue tincidunt porttitor ut ac nisl. Etiam ac porttitor massa,",
        "imageUrl": "https://images-na.ssl-images-amazon.com/images/I/610YnX2Cu9L._CR204,0,1224,1224_UX256.jpg",
        "price": 199
      },
      "id": 6
    },
    {
      "product": {
        "id": 5,
        "name": "Teddy",
        "description": "In aliquet aliquam dictum. Curabitur a neque enim. Duis tincidunt metus vitae arcu pretium, eu rhoncus urna venenatis. Etiam eu est pharetra, auctor lorem a, finibus felis. Vestibulum convallis auctor magna nec posuere. Proin velit augue, rhoncus vulputate convallis vitae, lobortis vel justo. Maecenas lectus ligula,",
        "imageUrl": "https://www.pascogifts.com/files/cache/square/files/8182-002-foto-1-pluche-knuffelbeer-met-hoodie-low-resolution-748248-5bc4915253078.jpg",
        "price": 99
      },
      "id": 7
    },
    {
      "product": {
        "id": 3,
        "name": "The Train",
        "description": "In hac habitasse platea dictumst. Integer volutpat fringilla elit, sit amet molestie neque volutpat a. Ut quis ligula libero. Suspendisse justo ipsum, efficitur non lobortis sed",
        "imageUrl": "https://b3h2.scene7.com/is/image/BedBathandBeyond/139044962738514p?$imagePLP$&wid=256&hei=256",
        "price": 399
      },
      "id": 8
    },
    {
      "product": {
        "id": 3,
        "name": "The Train",
        "description": "In hac habitasse platea dictumst. Integer volutpat fringilla elit, sit amet molestie neque volutpat a. Ut quis ligula libero. Suspendisse justo ipsum, efficitur non lobortis sed",
        "imageUrl": "https://b3h2.scene7.com/is/image/BedBathandBeyond/139044962738514p?$imagePLP$&wid=256&hei=256",
        "price": 399
      },
      "id": 9
    },
    {
      "product": {
        "id": 3,
        "name": "The Train",
        "description": "In hac habitasse platea dictumst. Integer volutpat fringilla elit, sit amet molestie neque volutpat a. Ut quis ligula libero. Suspendisse justo ipsum, efficitur non lobortis sed",
        "imageUrl": "https://b3h2.scene7.com/is/image/BedBathandBeyond/139044962738514p?$imagePLP$&wid=256&hei=256",
        "price": 399
      },
      "id": 10
    },
    {
      "product": {
        "id": 3,
        "name": "The Train",
        "description": "In hac habitasse platea dictumst. Integer volutpat fringilla elit, sit amet molestie neque volutpat a. Ut quis ligula libero. Suspendisse justo ipsum, efficitur non lobortis sed",
        "imageUrl": "https://b3h2.scene7.com/is/image/BedBathandBeyond/139044962738514p?$imagePLP$&wid=256&hei=256",
        "price": 399
      },
      "id": 11
    },
    {
      "product": {
        "id": 3,
        "name": "The Train",
        "description": "In hac habitasse platea dictumst. Integer volutpat fringilla elit, sit amet molestie neque volutpat a. Ut quis ligula libero. Suspendisse justo ipsum, efficitur non lobortis sed",
        "imageUrl": "https://b3h2.scene7.com/is/image/BedBathandBeyond/139044962738514p?$imagePLP$&wid=256&hei=256",
        "price": 399
      },
      "id": 12
    },
    {
      "product": {
        "id": 3,
        "name": "The Train",
        "description": "In hac habitasse platea dictumst. Integer volutpat fringilla elit, sit amet molestie neque volutpat a. Ut quis ligula libero. Suspendisse justo ipsum, efficitur non lobortis sed",
        "imageUrl": "https://b3h2.scene7.com/is/image/BedBathandBeyond/139044962738514p?$imagePLP$&wid=256&hei=256",
        "price": 399
      },
      "id": 13
    },
    {
      "product": {
        "id": 3,
        "name": "The Train",
        "description": "In hac habitasse platea dictumst. Integer volutpat fringilla elit, sit amet molestie neque volutpat a. Ut quis ligula libero. Suspendisse justo ipsum, efficitur non lobortis sed",
        "imageUrl": "https://b3h2.scene7.com/is/image/BedBathandBeyond/139044962738514p?$imagePLP$&wid=256&hei=256",
        "price": 399
      },
      "id": 14
    }
  ],
  "posts": [
    {
      "id": 1,
      "title": "json-server",
      "author": "typicode"
    }
  ],
  "comments": [
    {
      "id": 1,
      "body": "some comment",
      "postId": 1
    }
  ],
  "profile": {
    "name": "typicode"
  }
}